{
    "date": "2019-03-04T13:53:15.085Z",
    "country": "ca",
    "laterToday": [
        {
            "time": {
                "hour": "04:00",
                "meridiem": "PM",
                "timeZone": "UTC"
            },
            "name": "ON - Toronto",
            "region": "CANADA",
            "lanes": [
                {
                    "type": "Copart CN",
                    "lane": "A",
                    "items": "141",
                    "url": {
                        "auctionID": "201",
                        "lane": "A"
                    }
                },
                {
                    "type": "Copart CN",
                    "lane": "B",
                    "items": "142",
                    "url": {
                        "auctionID": "201",
                        "lane": "B"
                    }
                },
                {
                    "type": "Copart CN",
                    "lane": "C",
                    "items": "142",
                    "url": {
                        "auctionID": "201",
                        "lane": "C"
                    }
                },
                {
                    "type": "Copart CN",
                    "lane": "D",
                    "items": "140",
                    "url": {
                        "auctionID": "201",
                        "lane": "D"
                    }
                }
            ]
        }
    ]
}